{
    "record": "127_1", 
    "data": {
        "amh": 11.11, 
        "age": 35, 
        "afc": 17
    }, 
    "treatment": {
        "protocol": "Long", 
        "params": {
            "dayStartPrep": 23, 
            "durationPrep": 27
        }
    }, 
    "visits": [
        {
            "fp": [
                8, 
                0, 
                0, 
                0, 
                0, 
                0, 
                0, 
                0
            ], 
            "injections": [
                {
                    "day": 50, 
                    "dose": 6
                }, 
                {
                    "day": 51, 
                    "dose": 6
                }, 
                {
                    "day": 52, 
                    "dose": 4
                }, 
                {
                    "day": 53, 
                    "dose": 4
                }, 
                {
                    "day": 54, 
                    "dose": 4
                }
            ], 
            "day": 49, 
            "p4": 1.5, 
            "e2": 9.0
        }, 
        {
            "fp": null, 
            "injections": [
                {
                    "day": 55, 
                    "dose": 6
                }, 
                {
                    "day": 56, 
                    "dose": 6
                }
            ], 
            "day": 55, 
            "p4": 1.5, 
            "e2": 967.0
        }, 
        {
            "fp": [
                3, 
                4, 
                2, 
                2, 
                0, 
                0, 
                0, 
                0
            ], 
            "injections": [
                {
                    "day": 57, 
                    "dose": 6
                }, 
                {
                    "day": 58, 
                    "dose": 6
                }, 
                {
                    "day": 59, 
                    "dose": 6
                }
            ], 
            "day": 57, 
            "p4": null, 
            "e2": 2649.0
        }, 
        {
            "fp": [
                0, 
                2, 
                2, 
                4, 
                0, 
                3, 
                2, 
                0
            ], 
            "injections": [], 
            "day": 60, 
            "p4": null, 
            "e2": 6425.0
        }
    ]
}