{
    "record": "145_1", 
    "data": {
        "amh": 30.37, 
        "age": 37, 
        "afc": 18
    }, 
    "treatment": {
        "protocol": "Long", 
        "params": {
            "dayStartPrep": 21, 
            "durationPrep": 21
        }
    }, 
    "visits": [
        {
            "day": 41, 
            "p4": 1.6, 
            "e2": 37.0, 
            "fp": [
                8, 
                0, 
                0, 
                0, 
                0, 
                0, 
                0, 
                0
            ], 
            "injections": [
                {
                    "day": 42, 
                    "dose": 4
                }, 
                {
                    "day": 43, 
                    "dose": 4
                }, 
                {
                    "day": 44, 
                    "dose": 4
                }, 
                {
                    "day": 45, 
                    "dose": 4
                }, 
                {
                    "day": 46, 
                    "dose": 4
                }
            ]
        }, 
        {
            "fp": [
                10, 
                5, 
                2, 
                0, 
                0, 
                0, 
                0, 
                0
            ], 
            "injections": [
                {
                    "day": 47, 
                    "dose": 3
                }, 
                {
                    "day": 48, 
                    "dose": 3
                }
            ], 
            "day": 47, 
            "p4": 1.8, 
            "e2": 4254.0
        }, 
        {
            "fp": [
                0, 
                10, 
                7, 
                1, 
                0, 
                0, 
                0, 
                0
            ], 
            "injections": [
                {
                    "day": 49, 
                    "dose": 3
                }, 
                {
                    "day": 50, 
                    "dose": 3
                }
            ], 
            "day": 49, 
            "p4": null, 
            "e2": 8402.0
        }
    ]
}