{
    "record": "15_1", 
    "data": {
        "amh": 13.0, 
        "age": 39, 
        "afc": 9
    }, 
    "treatment": {
        "protocol": "Short", 
        "params": {
            "dayStartPrep": 2, 
            "durationPrep": 29
        }
    }, 
    "visits": [
        {
            "fp": null, 
            "injections": [
                {
                    "day": 33, 
                    "dose": 6
                }, 
                {
                    "day": 34, 
                    "dose": 6
                }
            ], 
            "day": 32, 
            "p4": 1.4, 
            "e2": 49.0
        }, 
        {
            "day": 35, 
            "e2": null, 
            "p4": null, 
            "fp": null, 
            "injections": [
                {
                    "day": 35, 
                    "dose": 4
                }, 
                {
                    "day": 36, 
                    "dose": 4
                }, 
                {
                    "day": 37, 
                    "dose": 4
                }
            ]
        }, 
        {
            "fp": null, 
            "injections": [
                {
                    "day": 38, 
                    "dose": 8
                }, 
                {
                    "day": 39, 
                    "dose": 8
                }
            ], 
            "day": 38, 
            "p4": 1.0, 
            "e2": 127.0
        }, 
        {
            "fp": [
                7, 
                0, 
                0, 
                0, 
                0, 
                0, 
                0, 
                0
            ], 
            "injections": [
                {
                    "day": 40, 
                    "dose": 12
                }, 
                {
                    "day": 41, 
                    "dose": 12
                }, 
                {
                    "day": 42, 
                    "dose": 12
                }
            ], 
            "day": 40, 
            "p4": null, 
            "e2": 419.0
        }, 
        {
            "fp": [
                7, 
                1, 
                4, 
                2, 
                0, 
                0, 
                0, 
                0
            ], 
            "injections": [
                {
                    "day": 43, 
                    "dose": 12
                }, 
                {
                    "day": 44, 
                    "dose": 12
                }
            ], 
            "day": 43, 
            "p4": null, 
            "e2": 2693.0
        }
    ]
}