{
    "record": "164_2", 
    "data": {
        "amh": 8.5, 
        "age": 37, 
        "afc": 12
    }, 
    "treatment": {
        "protocol": "Long", 
        "params": {
            "dayStartPrep": 22, 
            "durationPrep": 21
        }
    }, 
    "visits": [
        {
            "fp": [
                8, 
                0, 
                0, 
                0, 
                0, 
                0, 
                0, 
                0
            ], 
            "injections": [
                {
                    "day": 43, 
                    "dose": 4
                }, 
                {
                    "day": 44, 
                    "dose": 4
                }, 
                {
                    "day": 45, 
                    "dose": 4
                }, 
                {
                    "day": 46, 
                    "dose": 4
                }, 
                {
                    "day": 47, 
                    "dose": 4
                }
            ], 
            "day": 42, 
            "p4": 1.5, 
            "e2": 66.0
        }, 
        {
            "fp": null, 
            "injections": [
                {
                    "day": 48, 
                    "dose": 6
                }, 
                {
                    "day": 49, 
                    "dose": 6
                }
            ], 
            "day": 48, 
            "p4": 1.9, 
            "e2": 922.0
        }, 
        {
            "fp": [
                8, 
                4, 
                1, 
                0, 
                1, 
                0, 
                0, 
                0
            ], 
            "injections": [
                {
                    "day": 50, 
                    "dose": 6
                }, 
                {
                    "day": 51, 
                    "dose": 6
                }, 
                {
                    "day": 52, 
                    "dose": 6
                }
            ], 
            "day": 50, 
            "p4": null, 
            "e2": 2335.0
        }, 
        {
            "fp": [
                3, 
                2, 
                3, 
                3, 
                3, 
                1, 
                1, 
                0
            ], 
            "injections": [], 
            "day": 53, 
            "p4": null, 
            "e2": 6738.0
        }
    ]
}