{
    "record": "172_2", 
    "data": {
        "amh": 23.0, 
        "age": 36, 
        "afc": 22
    }, 
    "treatment": {
        "protocol": "Long", 
        "params": {
            "dayStartPrep": 23, 
            "durationPrep": 27
        }
    }, 
    "visits": [
        {
            "fp": [
                8, 
                0, 
                0, 
                0, 
                0, 
                0, 
                0, 
                0
            ], 
            "injections": [
                {
                    "day": 50, 
                    "dose": 4
                }, 
                {
                    "day": 51, 
                    "dose": 4
                }, 
                {
                    "day": 52, 
                    "dose": 4
                }, 
                {
                    "day": 53, 
                    "dose": 4
                }, 
                {
                    "day": 54, 
                    "dose": 4
                }
            ], 
            "day": 49, 
            "p4": 0.5, 
            "e2": 83.0
        }, 
        {
            "fp": null, 
            "injections": [
                {
                    "day": 55, 
                    "dose": 4
                }, 
                {
                    "day": 56, 
                    "dose": 4
                }
            ], 
            "day": 55, 
            "p4": 0.6, 
            "e2": 613.0
        }, 
        {
            "fp": [
                8, 
                6, 
                1, 
                0, 
                0, 
                0, 
                0, 
                0
            ], 
            "injections": [
                {
                    "day": 57, 
                    "dose": 4
                }, 
                {
                    "day": 58, 
                    "dose": 4
                }, 
                {
                    "day": 59, 
                    "dose": 4
                }
            ], 
            "day": 57, 
            "p4": null, 
            "e2": 1130.0
        }, 
        {
            "fp": [
                8, 
                4, 
                4, 
                3, 
                3, 
                0, 
                0, 
                0
            ], 
            "injections": [
                {
                    "day": 60, 
                    "dose": 6
                }
            ], 
            "day": 60, 
            "p4": 0.6, 
            "e2": 3508.0
        }, 
        {
            "fp": [
                8, 
                8, 
                3, 
                2, 
                3, 
                1, 
                0, 
                0
            ], 
            "injections": [
                {
                    "day": 61, 
                    "dose": 6
                }
            ], 
            "day": 61, 
            "p4": null, 
            "e2": 5421.0
        }
    ]
}