{
    "record": "191_1", 
    "data": {
        "amh": 42.0, 
        "age": 34, 
        "afc": 23
    }, 
    "treatment": {
        "protocol": "Long", 
        "params": {
            "dayStartPrep": 23, 
            "durationPrep": 29
        }
    }, 
    "visits": [
        {
            "fp": [
                8, 
                0, 
                0, 
                0, 
                0, 
                0, 
                0, 
                0
            ], 
            "injections": [
                {
                    "day": 52, 
                    "dose": 3
                }, 
                {
                    "day": 53, 
                    "dose": 3
                }, 
                {
                    "day": 54, 
                    "dose": 2
                }, 
                {
                    "day": 55, 
                    "dose": 2
                }, 
                {
                    "day": 56, 
                    "dose": 2
                }
            ], 
            "day": 51, 
            "p4": 0.9, 
            "e2": 28.0
        }, 
        {
            "fp": null, 
            "injections": [
                {
                    "day": 57, 
                    "dose": 3
                }, 
                {
                    "day": 58, 
                    "dose": 3
                }
            ], 
            "day": 57, 
            "p4": 1.1, 
            "e2": 137.0
        }, 
        {
            "fp": [
                19, 
                1, 
                0, 
                0, 
                0, 
                0, 
                0, 
                0
            ], 
            "injections": [
                {
                    "day": 59, 
                    "dose": 3
                }, 
                {
                    "day": 60, 
                    "dose": 3
                }, 
                {
                    "day": 61, 
                    "dose": 3
                }
            ], 
            "day": 59, 
            "p4": null, 
            "e2": 493.0
        }, 
        {
            "fp": [
                8, 
                2, 
                1, 
                1, 
                0, 
                0, 
                0, 
                0
            ], 
            "injections": [
                {
                    "day": 62, 
                    "dose": 4
                }, 
                {
                    "day": 63, 
                    "dose": 4
                }
            ], 
            "day": 62, 
            "p4": null, 
            "e2": 821.0
        }, 
        {
            "fp": [
                8, 
                2, 
                1, 
                1, 
                0, 
                1, 
                0, 
                0
            ], 
            "injections": [
                {
                    "day": 64, 
                    "dose": 4
                }, 
                {
                    "day": 65, 
                    "dose": 4
                }
            ], 
            "day": 64, 
            "p4": null, 
            "e2": 1890.0
        }, 
        {
            "fp": [
                8, 
                2, 
                1, 
                1, 
                1, 
                0, 
                1, 
                0
            ], 
            "injections": [
                {
                    "day": 66, 
                    "dose": 6
                }
            ], 
            "day": 66, 
            "p4": null, 
            "e2": 3126.0
        }
    ]
}