{
    "record": "206_2", 
    "data": {
        "amh": 0.55, 
        "age": 34, 
        "afc": 3
    }, 
    "treatment": {
        "protocol": "Short", 
        "params": {
            "dayStartPrep": 2, 
            "durationPrep": 14
        }
    }, 
    "visits": [
        {
            "fp": null, 
            "injections": [
                {
                    "day": 18, 
                    "dose": 12
                }, 
                {
                    "day": 19, 
                    "dose": 12
                }
            ], 
            "day": 17, 
            "p4": 0.4, 
            "e2": 50.0
        }, 
        {
            "day": 20, 
            "e2": null, 
            "p4": null, 
            "fp": null, 
            "injections": [
                {
                    "day": 20, 
                    "dose": 12
                }, 
                {
                    "day": 21, 
                    "dose": 12
                }, 
                {
                    "day": 22, 
                    "dose": 12
                }
            ]
        }, 
        {
            "fp": null, 
            "injections": [
                {
                    "day": 23, 
                    "dose": 12
                }, 
                {
                    "day": 24, 
                    "dose": 12
                }
            ], 
            "day": 23, 
            "p4": 0.5, 
            "e2": 319.0
        }, 
        {
            "fp": [
                2, 
                0, 
                1, 
                0, 
                0, 
                0, 
                1, 
                0
            ], 
            "injections": [
                {
                    "day": 25, 
                    "dose": 12
                }, 
                {
                    "day": 26, 
                    "dose": 12
                }, 
                {
                    "day": 27, 
                    "dose": 12
                }
            ], 
            "day": 25, 
            "p4": null, 
            "e2": 670.0
        }, 
        {
            "fp": [
                2, 
                1, 
                0, 
                1, 
                0, 
                0, 
                1, 
                0
            ], 
            "injections": [
                {
                    "day": 28, 
                    "dose": 12
                }, 
                {
                    "day": 29, 
                    "dose": 12
                }
            ], 
            "day": 28, 
            "p4": null, 
            "e2": 1372.0
        }, 
        {
            "fp": [
                2, 
                1, 
                0, 
                0, 
                0, 
                1, 
                1, 
                0
            ], 
            "injections": [], 
            "day": 30, 
            "p4": null, 
            "e2": 1922.0
        }
    ]
}