{
    "record": "210_1", 
    "data": {
        "amh": 18.0, 
        "age": 39, 
        "afc": 17
    }, 
    "treatment": {
        "protocol": "Long", 
        "params": {
            "dayStartPrep": 22, 
            "durationPrep": 24
        }
    }, 
    "visits": [
        {
            "fp": [
                8, 
                0, 
                0, 
                0, 
                0, 
                0, 
                0, 
                0
            ], 
            "injections": [
                {
                    "day": 46, 
                    "dose": 6
                }, 
                {
                    "day": 47, 
                    "dose": 6
                }, 
                {
                    "day": 48, 
                    "dose": 6
                }, 
                {
                    "day": 49, 
                    "dose": 6
                }, 
                {
                    "day": 50, 
                    "dose": 6
                }
            ], 
            "day": 45, 
            "p4": 1.5, 
            "e2": 9.0
        }, 
        {
            "fp": null, 
            "injections": [
                {
                    "day": 51, 
                    "dose": 8
                }, 
                {
                    "day": 52, 
                    "dose": 8
                }
            ], 
            "day": 51, 
            "p4": 1.6, 
            "e2": 341.0
        }, 
        {
            "fp": [
                2, 
                4, 
                0, 
                1, 
                0, 
                0, 
                0, 
                0
            ], 
            "injections": [
                {
                    "day": 53, 
                    "dose": 8
                }, 
                {
                    "day": 54, 
                    "dose": 8
                }, 
                {
                    "day": 55, 
                    "dose": 8
                }
            ], 
            "day": 53, 
            "p4": null, 
            "e2": 1117.0
        }, 
        {
            "fp": [
                1, 
                2, 
                1, 
                3, 
                1, 
                0, 
                0, 
                0
            ], 
            "injections": [
                {
                    "day": 56, 
                    "dose": 8
                }, 
                {
                    "day": 57, 
                    "dose": 8
                }
            ], 
            "day": 56, 
            "p4": null, 
            "e2": 3307.0
        }, 
        {
            "fp": [
                2, 
                0, 
                1, 
                1, 
                1, 
                3, 
                1, 
                0
            ], 
            "injections": [], 
            "day": 58, 
            "p4": null, 
            "e2": 5461.0
        }
    ]
}