{
    "record": "211_1", 
    "data": {
        "amh": 17.04, 
        "age": 36, 
        "afc": 18
    }, 
    "treatment": {
        "protocol": "Long", 
        "params": {
            "dayStartPrep": 25, 
            "durationPrep": 29
        }
    }, 
    "visits": [
        {
            "fp": [
                8, 
                0, 
                0, 
                0, 
                0, 
                0, 
                0, 
                0
            ], 
            "injections": [
                {
                    "day": 54, 
                    "dose": 4
                }, 
                {
                    "day": 55, 
                    "dose": 4
                }, 
                {
                    "day": 56, 
                    "dose": 4
                }, 
                {
                    "day": 57, 
                    "dose": 4
                }, 
                {
                    "day": 58, 
                    "dose": 4
                }
            ], 
            "day": 53, 
            "p4": 0.6, 
            "e2": 127.0
        }, 
        {
            "fp": null, 
            "injections": [
                {
                    "day": 59, 
                    "dose": 3
                }, 
                {
                    "day": 60, 
                    "dose": 3
                }
            ], 
            "day": 59, 
            "p4": 1.4, 
            "e2": 2546.0
        }, 
        {
            "fp": [
                0, 
                8, 
                4, 
                0, 
                0, 
                0, 
                0, 
                0
            ], 
            "injections": [
                {
                    "day": 61, 
                    "dose": 4
                }, 
                {
                    "day": 62, 
                    "dose": 4
                }, 
                {
                    "day": 63, 
                    "dose": 4
                }
            ], 
            "day": 61, 
            "p4": null, 
            "e2": 3135.0
        }, 
        {
            "fp": [
                2, 
                4, 
                1, 
                2, 
                1, 
                1, 
                1, 
                0
            ], 
            "injections": [], 
            "day": 64, 
            "p4": null, 
            "e2": 4457.0
        }
    ]
}