{
    "record": "226_2", 
    "data": {
        "amh": 5.41, 
        "age": 37, 
        "afc": 7
    }, 
    "treatment": {
        "protocol": "Short", 
        "params": {
            "dayStartPrep": 2, 
            "durationPrep": 14
        }
    }, 
    "visits": [
        {
            "fp": null, 
            "injections": [
                {
                    "day": 18, 
                    "dose": 8
                }, 
                {
                    "day": 19, 
                    "dose": 8
                }
            ], 
            "day": 17, 
            "p4": 1.2, 
            "e2": 9.0
        }, 
        {
            "day": 20, 
            "e2": null, 
            "p4": null, 
            "fp": null, 
            "injections": [
                {
                    "day": 20, 
                    "dose": 8
                }, 
                {
                    "day": 21, 
                    "dose": 8
                }, 
                {
                    "day": 22, 
                    "dose": 8
                }
            ]
        }, 
        {
            "fp": null, 
            "injections": [
                {
                    "day": 23, 
                    "dose": 8
                }, 
                {
                    "day": 24, 
                    "dose": 8
                }
            ], 
            "day": 23, 
            "p4": 1.7, 
            "e2": 955.0
        }, 
        {
            "fp": [
                3, 
                0, 
                3, 
                0, 
                0, 
                0, 
                0, 
                0
            ], 
            "injections": [
                {
                    "day": 25, 
                    "dose": 8
                }, 
                {
                    "day": 26, 
                    "dose": 8
                }, 
                {
                    "day": 27, 
                    "dose": 8
                }
            ], 
            "day": 25, 
            "p4": null, 
            "e2": 2085.0
        }, 
        {
            "fp": [
                2, 
                2, 
                0, 
                2, 
                1, 
                1, 
                0, 
                0
            ], 
            "injections": [
                {
                    "day": 28, 
                    "dose": 8
                }
            ], 
            "day": 28, 
            "p4": null, 
            "e2": 4167.0
        }
    ]
}