{
    "record": "260_1", 
    "data": {
        "amh": 11.85, 
        "age": 35, 
        "afc": 11
    }, 
    "treatment": {
        "protocol": "Long", 
        "params": {
            "dayStartPrep": 21, 
            "durationPrep": 18
        }
    }, 
    "visits": [
        {
            "day": 38, 
            "p4": 0.5, 
            "e2": 9.0, 
            "fp": [
                3, 
                0, 
                0, 
                0, 
                0, 
                0, 
                0, 
                0
            ], 
            "injections": [
                {
                    "day": 39, 
                    "dose": 6
                }, 
                {
                    "day": 40, 
                    "dose": 6
                }, 
                {
                    "day": 41, 
                    "dose": 6
                }, 
                {
                    "day": 42, 
                    "dose": 6
                }, 
                {
                    "day": 43, 
                    "dose": 6
                }
            ]
        }, 
        {
            "fp": null, 
            "injections": [
                {
                    "day": 44, 
                    "dose": 8
                }, 
                {
                    "day": 45, 
                    "dose": 8
                }
            ], 
            "day": 44, 
            "p4": 0.4, 
            "e2": 293.0
        }, 
        {
            "fp": [
                8, 
                0, 
                0, 
                0, 
                0, 
                0, 
                0, 
                0
            ], 
            "injections": [
                {
                    "day": 46, 
                    "dose": 8
                }, 
                {
                    "day": 47, 
                    "dose": 8
                }, 
                {
                    "day": 48, 
                    "dose": 8
                }
            ], 
            "day": 46, 
            "p4": null, 
            "e2": 1027.0
        }, 
        {
            "fp": [
                2, 
                3, 
                4, 
                2, 
                0, 
                0, 
                0, 
                0
            ], 
            "injections": [
                {
                    "day": 49, 
                    "dose": 8
                }, 
                {
                    "day": 50, 
                    "dose": 8
                }
            ], 
            "day": 49, 
            "p4": null, 
            "e2": 4045.0
        }
    ]
}