{
    "record": "261_1", 
    "data": {
        "amh": 62.22, 
        "age": 31, 
        "afc": 30
    }, 
    "treatment": {
        "protocol": "Anta", 
        "params": {
            "dayStartPrep": 2, 
            "durationPrep": 25
        }
    }, 
    "visits": [
        {
            "fp": [
                48, 
                0, 
                0, 
                0, 
                0, 
                0, 
                0, 
                0
            ], 
            "injections": [
                {
                    "day": 29, 
                    "dose": 3
                }, 
                {
                    "day": 30, 
                    "dose": 3
                }, 
                {
                    "day": 31, 
                    "dose": 3
                }, 
                {
                    "day": 32, 
                    "dose": 3
                }
            ], 
            "day": 28, 
            "p4": 2.0, 
            "e2": 65.0
        }, 
        {
            "fp": [
                36, 
                0, 
                0, 
                0, 
                0, 
                0, 
                0, 
                0
            ], 
            "injections": [
                {
                    "day": 33, 
                    "dose": 4
                }, 
                {
                    "day": 34, 
                    "dose": 4
                }, 
                {
                    "day": 35, 
                    "dose": 4
                }
            ], 
            "day": 33, 
            "p4": 1.7, 
            "e2": 1541.0
        }, 
        {
            "fp": [
                24, 
                8, 
                8, 
                1, 
                0, 
                0, 
                0, 
                0
            ], 
            "injections": [
                {
                    "day": 36, 
                    "dose": 4
                }, 
                {
                    "day": 37, 
                    "dose": 4
                }, 
                {
                    "day": 38, 
                    "dose": 4
                }
            ], 
            "day": 36, 
            "p4": null, 
            "e2": 3456.0
        }, 
        {
            "fp": [
                21, 
                1, 
                11, 
                10, 
                3, 
                4, 
                1, 
                0
            ], 
            "injections": [], 
            "day": 39, 
            "p4": null, 
            "e2": 6282.0
        }
    ]
}