{
    "record": "266_2", 
    "data": {
        "amh": 8.15, 
        "age": 35, 
        "afc": 5
    }, 
    "treatment": {
        "protocol": "Short", 
        "params": {
            "dayStartPrep": 3, 
            "durationPrep": 26
        }
    }, 
    "visits": [
        {
            "fp": null, 
            "injections": [
                {
                    "day": 31, 
                    "dose": 8
                }, 
                {
                    "day": 32, 
                    "dose": 8
                }
            ], 
            "day": 30, 
            "p4": 0.9, 
            "e2": 9.0
        }, 
        {
            "day": 33, 
            "e2": null, 
            "p4": null, 
            "fp": null, 
            "injections": [
                {
                    "day": 33, 
                    "dose": 8
                }, 
                {
                    "day": 34, 
                    "dose": 8
                }, 
                {
                    "day": 35, 
                    "dose": 8
                }
            ]
        }, 
        {
            "fp": null, 
            "injections": [
                {
                    "day": 36, 
                    "dose": 8
                }, 
                {
                    "day": 37, 
                    "dose": 8
                }
            ], 
            "day": 36, 
            "p4": 1.2, 
            "e2": 567.0
        }, 
        {
            "fp": [
                1, 
                3, 
                2, 
                0, 
                0, 
                0, 
                0, 
                0
            ], 
            "injections": [
                {
                    "day": 38, 
                    "dose": 8
                }, 
                {
                    "day": 39, 
                    "dose": 8
                }, 
                {
                    "day": 40, 
                    "dose": 8
                }
            ], 
            "day": 38, 
            "p4": null, 
            "e2": 2029.0
        }, 
        {
            "fp": [
                0, 
                0, 
                0, 
                1, 
                3, 
                2, 
                0, 
                0
            ], 
            "injections": [], 
            "day": 41, 
            "p4": null, 
            "e2": 4766.0
        }
    ]
}