{
    "record": "268_2", 
    "data": {
        "amh": 22.96, 
        "age": 37, 
        "afc": 14
    }, 
    "treatment": {
        "protocol": "Long", 
        "params": {
            "dayStartPrep": 22, 
            "durationPrep": 24
        }
    }, 
    "visits": [
        {
            "fp": [
                8, 
                0, 
                0, 
                0, 
                0, 
                0, 
                0, 
                0
            ], 
            "injections": [
                {
                    "day": 46, 
                    "dose": 6
                }, 
                {
                    "day": 47, 
                    "dose": 6
                }, 
                {
                    "day": 48, 
                    "dose": 6
                }, 
                {
                    "day": 49, 
                    "dose": 6
                }, 
                {
                    "day": 50, 
                    "dose": 6
                }
            ], 
            "day": 45, 
            "p4": 1.4, 
            "e2": 9.0
        }, 
        {
            "fp": null, 
            "injections": [
                {
                    "day": 51, 
                    "dose": 6
                }, 
                {
                    "day": 52, 
                    "dose": 6
                }
            ], 
            "day": 51, 
            "p4": 1.2, 
            "e2": 1564.0
        }, 
        {
            "fp": [
                5, 
                5, 
                6, 
                1, 
                0, 
                0, 
                0, 
                0
            ], 
            "injections": [
                {
                    "day": 53, 
                    "dose": 6
                }, 
                {
                    "day": 54, 
                    "dose": 6
                }, 
                {
                    "day": 55, 
                    "dose": 6
                }
            ], 
            "day": 53, 
            "p4": null, 
            "e2": 4478.0
        }, 
        {
            "fp": [
                2, 
                3, 
                3, 
                6, 
                5, 
                3, 
                0, 
                0
            ], 
            "injections": [], 
            "day": 56, 
            "p4": null, 
            "e2": 13865.0
        }
    ]
}