{
    "record": "278_1", 
    "data": {
        "amh": 85.19, 
        "age": 36, 
        "afc": 18
    }, 
    "treatment": {
        "protocol": "Anta", 
        "params": {
            "dayStartPrep": 2, 
            "durationPrep": 15
        }
    }, 
    "visits": [
        {
            "fp": null, 
            "injections": [
                {
                    "day": 19, 
                    "dose": 3
                }, 
                {
                    "day": 20, 
                    "dose": 3
                }, 
                {
                    "day": 21, 
                    "dose": 3
                }, 
                {
                    "day": 22, 
                    "dose": 3
                }, 
                {
                    "day": 23, 
                    "dose": 3
                }
            ], 
            "day": 18, 
            "p4": 1.8, 
            "e2": 9.0
        }, 
        {
            "fp": null, 
            "injections": [
                {
                    "day": 24, 
                    "dose": 4
                }, 
                {
                    "day": 25, 
                    "dose": 4
                }
            ], 
            "day": 24, 
            "p4": 1.9, 
            "e2": 54.0
        }, 
        {
            "fp": [
                30, 
                1, 
                0, 
                0, 
                0, 
                0, 
                0, 
                0
            ], 
            "injections": [
                {
                    "day": 26, 
                    "dose": 6
                }, 
                {
                    "day": 27, 
                    "dose": 6
                }, 
                {
                    "day": 28, 
                    "dose": 6
                }
            ], 
            "day": 26, 
            "p4": null, 
            "e2": 68.0
        }, 
        {
            "fp": [
                30, 
                0, 
                0, 
                0, 
                0, 
                0, 
                0, 
                0
            ], 
            "injections": [
                {
                    "day": 29, 
                    "dose": 8
                }, 
                {
                    "day": 30, 
                    "dose": 8
                }
            ], 
            "day": 29, 
            "p4": null, 
            "e2": 585.0
        }, 
        {
            "fp": [
                18, 
                7, 
                5, 
                0, 
                0, 
                0, 
                0, 
                0
            ], 
            "injections": [
                {
                    "day": 31, 
                    "dose": 8
                }, 
                {
                    "day": 32, 
                    "dose": 8
                }
            ], 
            "day": 31, 
            "p4": null, 
            "e2": 1828.0
        }, 
        {
            "fp": [
                9, 
                2, 
                5, 
                6, 
                1, 
                0, 
                0, 
                0
            ], 
            "injections": [
                {
                    "day": 33, 
                    "dose": 8
                }, 
                {
                    "day": 34, 
                    "dose": 8
                }
            ], 
            "day": 33, 
            "p4": null, 
            "e2": 4676.0
        }
    ]
}