{
    "record": "27_1", 
    "data": {
        "amh": 13.6, 
        "age": 34, 
        "afc": 8
    }, 
    "treatment": {
        "protocol": "Long", 
        "params": {
            "dayStartPrep": 21, 
            "durationPrep": 20
        }
    }, 
    "visits": [
        {
            "fp": null, 
            "injections": [
                {
                    "day": 41, 
                    "dose": 6
                }, 
                {
                    "day": 42, 
                    "dose": 6
                }, 
                {
                    "day": 43, 
                    "dose": 6
                }, 
                {
                    "day": 44, 
                    "dose": 6
                }, 
                {
                    "day": 45, 
                    "dose": 6
                }
            ], 
            "day": 40, 
            "p4": 1.7, 
            "e2": 41.0
        }, 
        {
            "fp": null, 
            "injections": [
                {
                    "day": 46, 
                    "dose": 8
                }, 
                {
                    "day": 47, 
                    "dose": 8
                }
            ], 
            "day": 46, 
            "p4": 1.7, 
            "e2": 638.0
        }, 
        {
            "fp": [
                2, 
                2, 
                2, 
                1, 
                0, 
                0, 
                0, 
                0
            ], 
            "injections": [
                {
                    "day": 48, 
                    "dose": 8
                }, 
                {
                    "day": 49, 
                    "dose": 8
                }, 
                {
                    "day": 50, 
                    "dose": 8
                }
            ], 
            "day": 48, 
            "p4": null, 
            "e2": 1816.0
        }, 
        {
            "fp": [
                1, 
                1, 
                1, 
                2, 
                1, 
                2, 
                1, 
                0
            ], 
            "injections": [], 
            "day": 51, 
            "p4": null, 
            "e2": 4844.0
        }
    ]
}