{
    "record": "285_1", 
    "data": {
        "amh": 31.63, 
        "age": 41, 
        "afc": 19
    }, 
    "treatment": {
        "protocol": "Anta", 
        "params": {
            "dayStartPrep": 2, 
            "durationPrep": 17
        }
    }, 
    "visits": [
        {
            "fp": null, 
            "injections": [
                {
                    "day": 21, 
                    "dose": 6
                }, 
                {
                    "day": 22, 
                    "dose": 6
                }, 
                {
                    "day": 23, 
                    "dose": 6
                }, 
                {
                    "day": 24, 
                    "dose": 6
                }, 
                {
                    "day": 25, 
                    "dose": 6
                }
            ], 
            "day": 20, 
            "p4": 0.5, 
            "e2": 71.0
        }, 
        {
            "fp": null, 
            "injections": [
                {
                    "day": 26, 
                    "dose": 6
                }, 
                {
                    "day": 27, 
                    "dose": 6
                }
            ], 
            "day": 26, 
            "p4": 0.6, 
            "e2": 2433.0
        }, 
        {
            "fp": [
                6, 
                5, 
                3, 
                1, 
                2, 
                0, 
                0, 
                0
            ], 
            "injections": [
                {
                    "day": 28, 
                    "dose": 6
                }
            ], 
            "day": 28, 
            "p4": null, 
            "e2": 6311.0
        }
    ]
}