{
    "record": "297_1", 
    "data": {
        "amh": 14.81, 
        "age": 38, 
        "afc": 15
    }, 
    "treatment": {
        "protocol": "Long", 
        "params": {
            "dayStartPrep": 21, 
            "durationPrep": 19
        }
    }, 
    "visits": [
        {
            "fp": [
                15, 
                0, 
                0, 
                0, 
                0, 
                0, 
                0, 
                0
            ], 
            "injections": [
                {
                    "day": 40, 
                    "dose": 6
                }, 
                {
                    "day": 41, 
                    "dose": 6
                }, 
                {
                    "day": 42, 
                    "dose": 6
                }, 
                {
                    "day": 43, 
                    "dose": 6
                }, 
                {
                    "day": 44, 
                    "dose": 6
                }
            ], 
            "day": 39, 
            "p4": 1.7, 
            "e2": 9.0
        }, 
        {
            "fp": null, 
            "injections": [
                {
                    "day": 45, 
                    "dose": 8
                }, 
                {
                    "day": 46, 
                    "dose": 8
                }
            ], 
            "day": 45, 
            "p4": 1.9, 
            "e2": 284.0
        }, 
        {
            "fp": [
                17, 
                0, 
                0, 
                0, 
                0, 
                0, 
                0, 
                0
            ], 
            "injections": [
                {
                    "day": 47, 
                    "dose": 8
                }, 
                {
                    "day": 48, 
                    "dose": 8
                }, 
                {
                    "day": 49, 
                    "dose": 8
                }
            ], 
            "day": 47, 
            "p4": null, 
            "e2": 864.0
        }, 
        {
            "fp": [
                18, 
                1, 
                0, 
                4, 
                1, 
                0, 
                0, 
                0
            ], 
            "injections": [
                {
                    "day": 50, 
                    "dose": 8
                }, 
                {
                    "day": 51, 
                    "dose": 8
                }
            ], 
            "day": 50, 
            "p4": null, 
            "e2": 2776.0
        }, 
        {
            "fp": [
                14, 
                0, 
                3, 
                1, 
                2, 
                2, 
                1, 
                0
            ], 
            "injections": [], 
            "day": 52, 
            "p4": null, 
            "e2": 6178.0
        }
    ]
}