{
    "record": "300_2", 
    "data": {
        "amh": 1.63, 
        "age": 34, 
        "afc": 6
    }, 
    "treatment": {
        "protocol": "Short", 
        "params": {
            "dayStartPrep": 2, 
            "durationPrep": 20
        }
    }, 
    "visits": [
        {
            "fp": null, 
            "injections": [
                {
                    "day": 24, 
                    "dose": 8
                }, 
                {
                    "day": 25, 
                    "dose": 8
                }
            ], 
            "day": 23, 
            "p4": 0.8, 
            "e2": 35.0
        }, 
        {
            "day": 26, 
            "e2": null, 
            "p4": null, 
            "fp": null, 
            "injections": [
                {
                    "day": 26, 
                    "dose": 8
                }, 
                {
                    "day": 27, 
                    "dose": 8
                }, 
                {
                    "day": 28, 
                    "dose": 8
                }
            ]
        }, 
        {
            "fp": null, 
            "injections": [
                {
                    "day": 29, 
                    "dose": 8
                }, 
                {
                    "day": 30, 
                    "dose": 8
                }
            ], 
            "day": 29, 
            "p4": 3.8, 
            "e2": 141.0
        }, 
        {
            "fp": [
                2, 
                0, 
                0, 
                0, 
                0, 
                0, 
                0, 
                0
            ], 
            "injections": [
                {
                    "day": 31, 
                    "dose": 12
                }, 
                {
                    "day": 32, 
                    "dose": 12
                }, 
                {
                    "day": 33, 
                    "dose": 12
                }
            ], 
            "day": 31, 
            "p4": 1.1, 
            "e2": 219.0
        }, 
        {
            "fp": [
                0, 
                3, 
                0, 
                0, 
                0, 
                0, 
                0, 
                0
            ], 
            "injections": [
                {
                    "day": 34, 
                    "dose": 12
                }, 
                {
                    "day": 35, 
                    "dose": 12
                }, 
                {
                    "day": 36, 
                    "dose": 12
                }, 
                {
                    "day": 37, 
                    "dose": 12
                }
            ], 
            "day": 34, 
            "p4": null, 
            "e2": 1012.0
        }, 
        {
            "fp": [
                0, 
                0, 
                0, 
                1, 
                2, 
                0, 
                0, 
                0
            ], 
            "injections": [
                {
                    "day": 38, 
                    "dose": 12
                }
            ], 
            "day": 38, 
            "p4": null, 
            "e2": 4009.0
        }
    ]
}