{
    "record": "311_1", 
    "data": {
        "amh": 20.0, 
        "age": 40, 
        "afc": 15
    }, 
    "treatment": {
        "protocol": "Long", 
        "params": {
            "dayStartPrep": 22, 
            "durationPrep": 16
        }
    }, 
    "visits": [
        {
            "fp": [
                14, 
                0, 
                0, 
                0, 
                0, 
                0, 
                0, 
                0
            ], 
            "injections": [
                {
                    "day": 38, 
                    "dose": 6
                }, 
                {
                    "day": 39, 
                    "dose": 6
                }, 
                {
                    "day": 40, 
                    "dose": 4
                }, 
                {
                    "day": 41, 
                    "dose": 4
                }, 
                {
                    "day": 42, 
                    "dose": 4
                }
            ], 
            "day": 37, 
            "p4": 1.6, 
            "e2": 9.0
        }, 
        {
            "fp": null, 
            "injections": [
                {
                    "day": 43, 
                    "dose": 4
                }, 
                {
                    "day": 44, 
                    "dose": 4
                }
            ], 
            "day": 43, 
            "p4": 1.4, 
            "e2": 760.0
        }, 
        {
            "fp": [
                10, 
                2, 
                4, 
                1, 
                0, 
                0, 
                0, 
                0
            ], 
            "injections": [
                {
                    "day": 45, 
                    "dose": 4
                }, 
                {
                    "day": 46, 
                    "dose": 4
                }, 
                {
                    "day": 47, 
                    "dose": 4
                }
            ], 
            "day": 45, 
            "p4": null, 
            "e2": 2006.0
        }, 
        {
            "fp": [
                4, 
                1, 
                0, 
                1, 
                3, 
                3, 
                0, 
                0
            ], 
            "injections": [], 
            "day": 48, 
            "p4": null, 
            "e2": 4842.0
        }
    ]
}