{
    "record": "315_2", 
    "data": {
        "amh": 11.11, 
        "age": 39, 
        "afc": 7
    }, 
    "treatment": {
        "protocol": "Short", 
        "params": {
            "dayStartPrep": 3, 
            "durationPrep": 21
        }
    }, 
    "visits": [
        {
            "fp": null, 
            "injections": [
                {
                    "day": 26, 
                    "dose": 8
                }, 
                {
                    "day": 27, 
                    "dose": 8
                }
            ], 
            "day": 25, 
            "p4": 1.9, 
            "e2": 176.0
        }, 
        {
            "day": 28, 
            "e2": null, 
            "p4": null, 
            "fp": null, 
            "injections": [
                {
                    "day": 28, 
                    "dose": 8
                }, 
                {
                    "day": 29, 
                    "dose": 8
                }, 
                {
                    "day": 30, 
                    "dose": 8
                }
            ]
        }, 
        {
            "fp": null, 
            "injections": [
                {
                    "day": 31, 
                    "dose": 6
                }, 
                {
                    "day": 32, 
                    "dose": 6
                }
            ], 
            "day": 31, 
            "p4": 2.7, 
            "e2": 5151.0
        }, 
        {
            "fp": [
                5, 
                3, 
                4, 
                3, 
                1, 
                0, 
                0, 
                0
            ], 
            "injections": [
                {
                    "day": 33, 
                    "dose": 6
                }, 
                {
                    "day": 34, 
                    "dose": 6
                }
            ], 
            "day": 33, 
            "p4": 3.2, 
            "e2": 8728.0
        }
    ]
}