{
    "record": "327_1", 
    "data": {
        "amh": 17.19, 
        "age": 38, 
        "afc": 21
    }, 
    "treatment": {
        "protocol": "Anta", 
        "params": {
            "dayStartPrep": 2, 
            "durationPrep": 18
        }
    }, 
    "visits": [
        {
            "fp": null, 
            "injections": [
                {
                    "day": 22, 
                    "dose": 6
                }, 
                {
                    "day": 23, 
                    "dose": 6
                }, 
                {
                    "day": 24, 
                    "dose": 6
                }, 
                {
                    "day": 25, 
                    "dose": 6
                }, 
                {
                    "day": 26, 
                    "dose": 6
                }
            ], 
            "day": 21, 
            "p4": 0.3, 
            "e2": 135.0
        }, 
        {
            "fp": [
                7, 
                0, 
                3, 
                1, 
                1, 
                1, 
                0, 
                0
            ], 
            "injections": [
                {
                    "day": 27, 
                    "dose": 6
                }, 
                {
                    "day": 28, 
                    "dose": 6
                }
            ], 
            "day": 27, 
            "p4": 0.9, 
            "e2": 1174.0
        }, 
        {
            "fp": [
                7, 
                0, 
                1, 
                0, 
                3, 
                2, 
                1, 
                0
            ], 
            "injections": [
                {
                    "day": 29, 
                    "dose": 6
                }
            ], 
            "day": 29, 
            "p4": null, 
            "e2": 1513.0
        }
    ]
}