{
    "record": "329_1", 
    "data": {
        "amh": 4.07, 
        "age": 35, 
        "afc": 4
    }, 
    "treatment": {
        "protocol": "Short", 
        "params": {
            "dayStartPrep": 3, 
            "durationPrep": 13
        }
    }, 
    "visits": [
        {
            "fp": null, 
            "injections": [
                {
                    "day": 18, 
                    "dose": 8
                }, 
                {
                    "day": 19, 
                    "dose": 8
                }
            ], 
            "day": 17, 
            "p4": 1.2, 
            "e2": 68.0
        }, 
        {
            "day": 20, 
            "e2": null, 
            "p4": null, 
            "fp": null, 
            "injections": [
                {
                    "day": 20, 
                    "dose": 6
                }, 
                {
                    "day": 21, 
                    "dose": 6
                }, 
                {
                    "day": 22, 
                    "dose": 6
                }
            ]
        }, 
        {
            "fp": null, 
            "injections": [
                {
                    "day": 23, 
                    "dose": 6
                }, 
                {
                    "day": 24, 
                    "dose": 6
                }
            ], 
            "day": 23, 
            "p4": 1.0, 
            "e2": 1808.0
        }, 
        {
            "fp": [
                3, 
                1, 
                1, 
                1, 
                0, 
                1, 
                0, 
                0
            ], 
            "injections": [
                {
                    "day": 25, 
                    "dose": 6
                }
            ], 
            "day": 25, 
            "p4": null, 
            "e2": 3709.0
        }
    ]
}