{
    "record": "343_2", 
    "data": {
        "amh": 8.15, 
        "age": 33, 
        "afc": 6
    }, 
    "treatment": {
        "protocol": "Long", 
        "params": {
            "dayStartPrep": 21, 
            "durationPrep": 28
        }
    }, 
    "visits": [
        {
            "fp": [
                7, 
                0, 
                0, 
                0, 
                0, 
                0, 
                0, 
                0
            ], 
            "injections": [
                {
                    "day": 49, 
                    "dose": 8
                }, 
                {
                    "day": 50, 
                    "dose": 8
                }, 
                {
                    "day": 51, 
                    "dose": 6
                }, 
                {
                    "day": 52, 
                    "dose": 6
                }, 
                {
                    "day": 53, 
                    "dose": 6
                }
            ], 
            "day": 48, 
            "p4": 0.8, 
            "e2": 9.0
        }, 
        {
            "fp": null, 
            "injections": [
                {
                    "day": 54, 
                    "dose": 8
                }, 
                {
                    "day": 55, 
                    "dose": 8
                }
            ], 
            "day": 54, 
            "p4": 1.0, 
            "e2": 1079.0
        }, 
        {
            "fp": [
                9, 
                5, 
                0, 
                0, 
                0, 
                0, 
                0, 
                0
            ], 
            "injections": [
                {
                    "day": 56, 
                    "dose": 8
                }, 
                {
                    "day": 57, 
                    "dose": 8
                }, 
                {
                    "day": 58, 
                    "dose": 8
                }
            ], 
            "day": 56, 
            "p4": null, 
            "e2": 3259.0
        }, 
        {
            "fp": [
                6, 
                2, 
                0, 
                7, 
                1, 
                0, 
                0, 
                0
            ], 
            "injections": [
                {
                    "day": 59, 
                    "dose": 8
                }, 
                {
                    "day": 60, 
                    "dose": 8
                }
            ], 
            "day": 59, 
            "p4": null, 
            "e2": 10141.0
        }, 
        {
            "fp": [
                4, 
                4, 
                2, 
                1, 
                4, 
                2, 
                0, 
                0
            ], 
            "injections": [], 
            "day": 61, 
            "p4": null, 
            "e2": 15325.0
        }
    ]
}