{
    "record": "343_1", 
    "data": {
        "amh": 8.15, 
        "age": 33, 
        "afc": 7
    }, 
    "treatment": {
        "protocol": "Short", 
        "params": {
            "dayStartPrep": 3, 
            "durationPrep": 29
        }
    }, 
    "visits": [
        {
            "fp": null, 
            "injections": [
                {
                    "day": 34, 
                    "dose": 4
                }, 
                {
                    "day": 35, 
                    "dose": 4
                }
            ], 
            "day": 33, 
            "p4": 1.5, 
            "e2": 39.0
        }, 
        {
            "day": 36, 
            "e2": null, 
            "p4": null, 
            "fp": null, 
            "injections": [
                {
                    "day": 36, 
                    "dose": 4
                }, 
                {
                    "day": 37, 
                    "dose": 4
                }, 
                {
                    "day": 38, 
                    "dose": 4
                }
            ]
        }, 
        {
            "fp": null, 
            "injections": [
                {
                    "day": 39, 
                    "dose": 4
                }, 
                {
                    "day": 40, 
                    "dose": 4
                }
            ], 
            "day": 39, 
            "p4": 1.4, 
            "e2": 2311.0
        }, 
        {
            "fp": [
                4, 
                2, 
                2, 
                1, 
                0, 
                0, 
                0, 
                0
            ], 
            "injections": [
                {
                    "day": 41, 
                    "dose": 4
                }, 
                {
                    "day": 42, 
                    "dose": 4
                }, 
                {
                    "day": 43, 
                    "dose": 4
                }
            ], 
            "day": 41, 
            "p4": null, 
            "e2": 4760.0
        }, 
        {
            "fp": [
                1, 
                2, 
                3, 
                1, 
                2, 
                3, 
                0, 
                0
            ], 
            "injections": [], 
            "day": 44, 
            "p4": null, 
            "e2": 10977.0
        }
    ]
}