{
    "record": "360_1", 
    "data": {
        "amh": 6.1, 
        "age": 42, 
        "afc": 11
    }, 
    "treatment": {
        "protocol": "Short", 
        "params": {
            "dayStartPrep": 3, 
            "durationPrep": 29
        }
    }, 
    "visits": [
        {
            "fp": null, 
            "injections": [
                {
                    "day": 34, 
                    "dose": 6
                }, 
                {
                    "day": 35, 
                    "dose": 6
                }
            ], 
            "day": 33, 
            "p4": 0.05, 
            "e2": 209.0
        }, 
        {
            "day": 36, 
            "e2": null, 
            "p4": null, 
            "fp": null, 
            "injections": [
                {
                    "day": 36, 
                    "dose": 6
                }, 
                {
                    "day": 37, 
                    "dose": 6
                }, 
                {
                    "day": 38, 
                    "dose": 6
                }
            ]
        }, 
        {
            "fp": null, 
            "injections": [
                {
                    "day": 39, 
                    "dose": 6
                }, 
                {
                    "day": 40, 
                    "dose": 6
                }
            ], 
            "day": 39, 
            "p4": 2.5, 
            "e2": 1933.0
        }, 
        {
            "fp": [
                9, 
                2, 
                3, 
                1, 
                0, 
                0, 
                0, 
                0
            ], 
            "injections": [
                {
                    "day": 41, 
                    "dose": 6
                }, 
                {
                    "day": 42, 
                    "dose": 6
                }, 
                {
                    "day": 43, 
                    "dose": 6
                }, 
                {
                    "day": 44, 
                    "dose": 0
                }
            ], 
            "day": 41, 
            "p4": 3.6, 
            "e2": 4587.0
        }
    ]
}