{
    "record": "366_5", 
    "data": {
        "amh": 9.3, 
        "age": 38, 
        "afc": 7
    }, 
    "treatment": {
        "protocol": "Short", 
        "params": {
            "dayStartPrep": 2, 
            "durationPrep": 18
        }
    }, 
    "visits": [
        {
            "fp": null, 
            "injections": [
                {
                    "day": 22, 
                    "dose": 12
                }, 
                {
                    "day": 23, 
                    "dose": 12
                }
            ], 
            "day": 21, 
            "p4": 1.5, 
            "e2": 63.0
        }, 
        {
            "day": 24, 
            "e2": null, 
            "p4": null, 
            "fp": null, 
            "injections": [
                {
                    "day": 24, 
                    "dose": 8
                }, 
                {
                    "day": 25, 
                    "dose": 8
                }, 
                {
                    "day": 26, 
                    "dose": 8
                }
            ]
        }, 
        {
            "fp": null, 
            "injections": [
                {
                    "day": 27, 
                    "dose": 8
                }, 
                {
                    "day": 28, 
                    "dose": 8
                }
            ], 
            "day": 27, 
            "p4": 1.3, 
            "e2": 1185.0
        }, 
        {
            "fp": [
                7, 
                5, 
                0, 
                0, 
                0, 
                0, 
                0, 
                0
            ], 
            "injections": [
                {
                    "day": 29, 
                    "dose": 8
                }, 
                {
                    "day": 30, 
                    "dose": 8
                }, 
                {
                    "day": 31, 
                    "dose": 8
                }
            ], 
            "day": 29, 
            "p4": null, 
            "e2": 3151.0
        }, 
        {
            "fp": [
                2, 
                3, 
                5, 
                3, 
                3, 
                1, 
                0, 
                0
            ], 
            "injections": [
                {
                    "day": 32, 
                    "dose": 8
                }, 
                {
                    "day": 33, 
                    "dose": 8
                }
            ], 
            "day": 32, 
            "p4": null, 
            "e2": 7793.0
        }, 
        {
            "fp": [
                5, 
                0, 
                3, 
                1, 
                3, 
                5, 
                2, 
                0
            ], 
            "injections": [
                {
                    "day": 34, 
                    "dose": 8
                }
            ], 
            "day": 34, 
            "p4": null, 
            "e2": 15179.0
        }
    ]
}