{
    "record": "379_1", 
    "data": {
        "amh": 11.0, 
        "age": 37, 
        "afc": 11
    }, 
    "treatment": {
        "protocol": "Short", 
        "params": {
            "dayStartPrep": 3, 
            "durationPrep": 18
        }
    }, 
    "visits": [
        {
            "fp": null, 
            "injections": [
                {
                    "day": 23, 
                    "dose": 4
                }, 
                {
                    "day": 24, 
                    "dose": 4
                }
            ], 
            "day": 22, 
            "p4": 1.3, 
            "e2": 86.0
        }, 
        {
            "day": 25, 
            "e2": null, 
            "p4": null, 
            "fp": null, 
            "injections": [
                {
                    "day": 25, 
                    "dose": 4
                }, 
                {
                    "day": 26, 
                    "dose": 4
                }, 
                {
                    "day": 27, 
                    "dose": 4
                }
            ]
        }, 
        {
            "fp": null, 
            "injections": [
                {
                    "day": 28, 
                    "dose": 6
                }, 
                {
                    "day": 29, 
                    "dose": 6
                }
            ], 
            "day": 28, 
            "p4": 1.2, 
            "e2": 856.0
        }, 
        {
            "fp": [
                4, 
                0, 
                0, 
                2, 
                0, 
                0, 
                0, 
                0
            ], 
            "injections": [
                {
                    "day": 30, 
                    "dose": 0
                }
            ], 
            "day": 30, 
            "p4": null, 
            "e2": 2404.0
        }
    ]
}