{
    "record": "380_1", 
    "data": {
        "amh": 7.0, 
        "age": 41, 
        "afc": 15
    }, 
    "treatment": {
        "protocol": "Short", 
        "params": {
            "dayStartPrep": 2, 
            "durationPrep": 18
        }
    }, 
    "visits": [
        {
            "fp": null, 
            "injections": [
                {
                    "day": 22, 
                    "dose": 6
                }, 
                {
                    "day": 23, 
                    "dose": 6
                }
            ], 
            "day": 21, 
            "p4": 1.1, 
            "e2": 110.0
        }, 
        {
            "day": 24, 
            "e2": null, 
            "p4": null, 
            "fp": null, 
            "injections": [
                {
                    "day": 24, 
                    "dose": 6
                }, 
                {
                    "day": 25, 
                    "dose": 6
                }, 
                {
                    "day": 26, 
                    "dose": 6
                }
            ]
        }, 
        {
            "fp": null, 
            "injections": [
                {
                    "day": 27, 
                    "dose": 6
                }, 
                {
                    "day": 28, 
                    "dose": 6
                }
            ], 
            "day": 27, 
            "p4": 1.3, 
            "e2": 1943.0
        }, 
        {
            "fp": [
                6, 
                2, 
                7, 
                3, 
                1, 
                0, 
                0, 
                0
            ], 
            "injections": [
                {
                    "day": 29, 
                    "dose": 6
                }, 
                {
                    "day": 30, 
                    "dose": 6
                }, 
                {
                    "day": 31, 
                    "dose": 0
                }
            ], 
            "day": 29, 
            "p4": null, 
            "e2": 7516.0
        }
    ]
}