{
    "record": "382_1", 
    "data": {
        "amh": 6.0, 
        "age": 41, 
        "afc": 8
    }, 
    "treatment": {
        "protocol": "Short", 
        "params": {
            "dayStartPrep": 2, 
            "durationPrep": 29
        }
    }, 
    "visits": [
        {
            "fp": null, 
            "injections": [
                {
                    "day": 33, 
                    "dose": 6
                }, 
                {
                    "day": 34, 
                    "dose": 6
                }
            ], 
            "day": 32, 
            "p4": 1.2, 
            "e2": 55.0
        }, 
        {
            "day": 35, 
            "e2": null, 
            "p4": null, 
            "fp": null, 
            "injections": [
                {
                    "day": 35, 
                    "dose": 6
                }, 
                {
                    "day": 36, 
                    "dose": 6
                }, 
                {
                    "day": 37, 
                    "dose": 6
                }
            ]
        }, 
        {
            "fp": null, 
            "injections": [
                {
                    "day": 38, 
                    "dose": 6
                }, 
                {
                    "day": 39, 
                    "dose": 6
                }
            ], 
            "day": 38, 
            "p4": 1.0, 
            "e2": 1766.0
        }, 
        {
            "fp": [
                3, 
                2, 
                3, 
                0, 
                0, 
                0, 
                0, 
                0
            ], 
            "injections": [
                {
                    "day": 40, 
                    "dose": 6
                }, 
                {
                    "day": 41, 
                    "dose": 6
                }, 
                {
                    "day": 42, 
                    "dose": 6
                }
            ], 
            "day": 40, 
            "p4": null, 
            "e2": 4155.0
        }, 
        {
            "fp": [
                0, 
                1, 
                0, 
                1, 
                1, 
                2, 
                1, 
                0
            ], 
            "injections": [
                {
                    "day": 43, 
                    "dose": 0
                }
            ], 
            "day": 43, 
            "p4": null, 
            "e2": 8345.0
        }
    ]
}