{
    "record": "383_1", 
    "data": {
        "amh": 1.3, 
        "age": 39, 
        "afc": 7
    }, 
    "treatment": {
        "protocol": "Short", 
        "params": {
            "dayStartPrep": 3, 
            "durationPrep": 29
        }
    }, 
    "visits": [
        {
            "fp": null, 
            "injections": [
                {
                    "day": 34, 
                    "dose": 6
                }, 
                {
                    "day": 35, 
                    "dose": 6
                }
            ], 
            "day": 33, 
            "p4": 1.0, 
            "e2": 44.0
        }, 
        {
            "day": 36, 
            "e2": null, 
            "p4": null, 
            "fp": null, 
            "injections": [
                {
                    "day": 36, 
                    "dose": 6
                }, 
                {
                    "day": 37, 
                    "dose": 6
                }, 
                {
                    "day": 38, 
                    "dose": 6
                }
            ]
        }, 
        {
            "fp": null, 
            "injections": [
                {
                    "day": 39, 
                    "dose": 8
                }, 
                {
                    "day": 40, 
                    "dose": 8
                }
            ], 
            "day": 39, 
            "p4": 1.2, 
            "e2": 750.0
        }, 
        {
            "fp": [
                1, 
                0, 
                0, 
                3, 
                0, 
                0, 
                0, 
                0
            ], 
            "injections": [
                {
                    "day": 41, 
                    "dose": 8
                }, 
                {
                    "day": 42, 
                    "dose": 8
                }, 
                {
                    "day": 43, 
                    "dose": 0
                }
            ], 
            "day": 41, 
            "p4": null, 
            "e2": 1651.0
        }
    ]
}