{
    "record": "384_1", 
    "data": {
        "amh": 30.0, 
        "age": 28, 
        "afc": 10
    }, 
    "treatment": {
        "protocol": "Long", 
        "params": {
            "dayStartPrep": 21, 
            "durationPrep": 25
        }
    }, 
    "visits": [
        {
            "fp": [
                8, 
                0, 
                0, 
                0, 
                0, 
                0, 
                0, 
                0
            ], 
            "injections": [
                {
                    "day": 46, 
                    "dose": 3
                }, 
                {
                    "day": 47, 
                    "dose": 3
                }, 
                {
                    "day": 48, 
                    "dose": 3
                }, 
                {
                    "day": 49, 
                    "dose": 3
                }, 
                {
                    "day": 50, 
                    "dose": 3
                }
            ], 
            "day": 45, 
            "p4": 1.4, 
            "e2": 69.0
        }, 
        {
            "fp": null, 
            "injections": [
                {
                    "day": 51, 
                    "dose": 3
                }, 
                {
                    "day": 52, 
                    "dose": 3
                }
            ], 
            "day": 51, 
            "p4": 1.6, 
            "e2": 626.0
        }, 
        {
            "fp": [
                18, 
                4, 
                0, 
                0, 
                0, 
                0, 
                0, 
                0
            ], 
            "injections": [
                {
                    "day": 53, 
                    "dose": 3
                }, 
                {
                    "day": 54, 
                    "dose": 3
                }, 
                {
                    "day": 55, 
                    "dose": 3
                }
            ], 
            "day": 53, 
            "p4": null, 
            "e2": 1925.0
        }, 
        {
            "fp": [
                8, 
                2, 
                7, 
                5, 
                0, 
                0, 
                0, 
                0
            ], 
            "injections": [
                {
                    "day": 56, 
                    "dose": 3
                }, 
                {
                    "day": 57, 
                    "dose": 3
                }
            ], 
            "day": 56, 
            "p4": null, 
            "e2": 5182.0
        }, 
        {
            "fp": [
                8, 
                2, 
                1, 
                3, 
                6, 
                3, 
                0, 
                0
            ], 
            "injections": [
                {
                    "day": 58, 
                    "dose": 0
                }
            ], 
            "day": 58, 
            "p4": null, 
            "e2": 10765.0
        }
    ]
}