{
    "record": "390_3", 
    "data": {
        "amh": 5.6, 
        "age": 29, 
        "afc": 11
    }, 
    "treatment": {
        "protocol": "Short", 
        "params": {
            "dayStartPrep": 2, 
            "durationPrep": 22
        }
    }, 
    "visits": [
        {
            "fp": null, 
            "injections": [
                {
                    "day": 26, 
                    "dose": 4
                }, 
                {
                    "day": 27, 
                    "dose": 4
                }
            ], 
            "day": 25, 
            "p4": 1.0, 
            "e2": 64.0
        }, 
        {
            "day": 28, 
            "e2": null, 
            "p4": null, 
            "fp": null, 
            "injections": [
                {
                    "day": 28, 
                    "dose": 4
                }, 
                {
                    "day": 29, 
                    "dose": 4
                }, 
                {
                    "day": 30, 
                    "dose": 4
                }
            ]
        }, 
        {
            "fp": null, 
            "injections": [
                {
                    "day": 31, 
                    "dose": 4
                }, 
                {
                    "day": 32, 
                    "dose": 4
                }
            ], 
            "day": 31, 
            "p4": 1.7, 
            "e2": 1992.0
        }, 
        {
            "fp": [
                2, 
                2, 
                0, 
                4, 
                0, 
                0, 
                0, 
                0
            ], 
            "injections": [
                {
                    "day": 33, 
                    "dose": 4
                }, 
                {
                    "day": 34, 
                    "dose": 4
                }, 
                {
                    "day": 35, 
                    "dose": 0
                }
            ], 
            "day": 33, 
            "p4": null, 
            "e2": 3622.0
        }
    ]
}