{
    "record": "409_1", 
    "data": {
        "amh": 8.7, 
        "age": 39, 
        "afc": 14
    }, 
    "treatment": {
        "protocol": "Short", 
        "params": {
            "dayStartPrep": 2, 
            "durationPrep": 27
        }
    }, 
    "visits": [
        {
            "fp": null, 
            "injections": [
                {
                    "day": 31, 
                    "dose": 6
                }, 
                {
                    "day": 32, 
                    "dose": 6
                }
            ], 
            "day": 30, 
            "p4": 0.7, 
            "e2": 69.0
        }, 
        {
            "day": 33, 
            "e2": null, 
            "p4": null, 
            "fp": null, 
            "injections": [
                {
                    "day": 33, 
                    "dose": 6
                }, 
                {
                    "day": 34, 
                    "dose": 6
                }, 
                {
                    "day": 35, 
                    "dose": 6
                }
            ]
        }, 
        {
            "fp": null, 
            "injections": [
                {
                    "day": 36, 
                    "dose": 8
                }, 
                {
                    "day": 37, 
                    "dose": 8
                }
            ], 
            "day": 36, 
            "p4": 1.0, 
            "e2": 729.0
        }, 
        {
            "fp": [
                4, 
                4, 
                2, 
                0, 
                0, 
                0, 
                0, 
                0
            ], 
            "injections": [
                {
                    "day": 38, 
                    "dose": 8
                }, 
                {
                    "day": 39, 
                    "dose": 8
                }, 
                {
                    "day": 40, 
                    "dose": 8
                }
            ], 
            "day": 38, 
            "p4": null, 
            "e2": 2472.0
        }, 
        {
            "fp": [
                3, 
                2, 
                4, 
                5, 
                2, 
                0, 
                0, 
                0
            ], 
            "injections": [
                {
                    "day": 41, 
                    "dose": 8
                }, 
                {
                    "day": 42, 
                    "dose": 8
                }
            ], 
            "day": 41, 
            "p4": null, 
            "e2": 7777.0
        }, 
        {
            "fp": [
                2, 
                1, 
                0, 
                3, 
                3, 
                5, 
                1, 
                0
            ], 
            "injections": [
                {
                    "day": 43, 
                    "dose": 0
                }
            ], 
            "day": 43, 
            "p4": null, 
            "e2": 12104.0
        }
    ]
}