{
    "record": "441_4", 
    "data": {
        "amh": 3.04, 
        "age": 40, 
        "afc": 6
    }, 
    "treatment": {
        "protocol": "Short", 
        "params": {
            "dayStartPrep": 2, 
            "durationPrep": 21
        }
    }, 
    "visits": [
        {
            "fp": null, 
            "injections": [
                {
                    "day": 25, 
                    "dose": 12
                }, 
                {
                    "day": 26, 
                    "dose": 12
                }
            ], 
            "day": 24, 
            "p4": 1.8, 
            "e2": 64.0
        }, 
        {
            "day": 27, 
            "e2": null, 
            "p4": null, 
            "fp": null, 
            "injections": [
                {
                    "day": 27, 
                    "dose": 12
                }, 
                {
                    "day": 28, 
                    "dose": 12
                }, 
                {
                    "day": 29, 
                    "dose": 12
                }
            ]
        }, 
        {
            "fp": null, 
            "injections": [
                {
                    "day": 30, 
                    "dose": 12
                }, 
                {
                    "day": 31, 
                    "dose": 12
                }
            ], 
            "day": 30, 
            "p4": 2.2, 
            "e2": 1141.0
        }, 
        {
            "fp": [
                6, 
                1, 
                1, 
                1, 
                0, 
                0, 
                0, 
                0
            ], 
            "injections": [
                {
                    "day": 32, 
                    "dose": 12
                }, 
                {
                    "day": 33, 
                    "dose": 12
                }, 
                {
                    "day": 34, 
                    "dose": 12
                }
            ], 
            "day": 32, 
            "p4": null, 
            "e2": 2068.0
        }, 
        {
            "fp": [
                4, 
                0, 
                1, 
                0, 
                1, 
                1, 
                1, 
                0
            ], 
            "injections": [
                {
                    "day": 35, 
                    "dose": 0
                }
            ], 
            "day": 35, 
            "p4": null, 
            "e2": 5248.0
        }
    ]
}