{
    "record": "4_3", 
    "data": {
        "amh": 4.9, 
        "age": 37, 
        "afc": 12
    }, 
    "treatment": {
        "protocol": "Short", 
        "params": {
            "dayStartPrep": 2, 
            "durationPrep": 18
        }
    }, 
    "visits": [
        {
            "fp": null, 
            "injections": [
                {
                    "day": 22, 
                    "dose": 6
                }, 
                {
                    "day": 23, 
                    "dose": 6
                }
            ], 
            "day": 21, 
            "p4": 0.8, 
            "e2": 83.0
        }, 
        {
            "day": 24, 
            "e2": null, 
            "p4": null, 
            "fp": null, 
            "injections": [
                {
                    "day": 24, 
                    "dose": 4
                }, 
                {
                    "day": 25, 
                    "dose": 4
                }, 
                {
                    "day": 26, 
                    "dose": 4
                }
            ]
        }, 
        {
            "fp": null, 
            "injections": [
                {
                    "day": 27, 
                    "dose": 4
                }, 
                {
                    "day": 28, 
                    "dose": 4
                }
            ], 
            "day": 27, 
            "p4": 1.8, 
            "e2": 2629.0
        }, 
        {
            "fp": [
                7, 
                3, 
                0, 
                0, 
                2, 
                3, 
                0, 
                0
            ], 
            "injections": [
                {
                    "day": 29, 
                    "dose": 4
                }
            ], 
            "day": 29, 
            "p4": null, 
            "e2": 6475.0
        }
    ]
}