{
    "record": "516_1", 
    "data": {
        "amh": 8.1, 
        "age": 37, 
        "afc": 7
    }, 
    "treatment": {
        "protocol": "Short", 
        "params": {
            "dayStartPrep": 4, 
            "durationPrep": 20
        }
    }, 
    "visits": [
        {
            "fp": null, 
            "injections": [
                {
                    "day": 26, 
                    "dose": 6
                }, 
                {
                    "day": 27, 
                    "dose": 6
                }
            ], 
            "day": 25, 
            "p4": 2.2, 
            "e2": 80.0
        }, 
        {
            "day": 28, 
            "e2": null, 
            "p4": null, 
            "fp": null, 
            "injections": [
                {
                    "day": 28, 
                    "dose": 6
                }, 
                {
                    "day": 29, 
                    "dose": 6
                }, 
                {
                    "day": 30, 
                    "dose": 6
                }
            ]
        }, 
        {
            "fp": null, 
            "injections": [
                {
                    "day": 31, 
                    "dose": 6
                }, 
                {
                    "day": 32, 
                    "dose": 6
                }
            ], 
            "day": 31, 
            "p4": 1.3, 
            "e2": 1410.0
        }, 
        {
            "fp": [
                0, 
                3, 
                5, 
                2, 
                1, 
                0, 
                0, 
                0
            ], 
            "injections": [
                {
                    "day": 33, 
                    "dose": 8
                }, 
                {
                    "day": 34, 
                    "dose": 8
                }, 
                {
                    "day": 35, 
                    "dose": 0
                }
            ], 
            "day": 33, 
            "p4": null, 
            "e2": 3622.0
        }
    ]
}