{
    "record": "544_2", 
    "data": {
        "amh": 13.33, 
        "age": 31, 
        "afc": 9
    }, 
    "treatment": {
        "protocol": "Long", 
        "params": {
            "dayStartPrep": 25, 
            "durationPrep": 23
        }
    }, 
    "visits": [
        {
            "fp": [
                20, 
                0, 
                0, 
                1, 
                0, 
                0, 
                0, 
                0
            ], 
            "injections": [
                {
                    "day": 48, 
                    "dose": 6
                }, 
                {
                    "day": 49, 
                    "dose": 6
                }, 
                {
                    "day": 50, 
                    "dose": 6
                }, 
                {
                    "day": 51, 
                    "dose": 6
                }, 
                {
                    "day": 52, 
                    "dose": 6
                }
            ], 
            "day": 47, 
            "p4": 1.7, 
            "e2": 9.0
        }, 
        {
            "fp": null, 
            "injections": [
                {
                    "day": 53, 
                    "dose": 8
                }, 
                {
                    "day": 54, 
                    "dose": 8
                }
            ], 
            "day": 53, 
            "p4": 2.0, 
            "e2": 507.0
        }, 
        {
            "fp": [
                18, 
                0, 
                0, 
                0, 
                0, 
                0, 
                0, 
                0
            ], 
            "injections": [
                {
                    "day": 55, 
                    "dose": 8
                }, 
                {
                    "day": 56, 
                    "dose": 8
                }, 
                {
                    "day": 57, 
                    "dose": 8
                }
            ], 
            "day": 55, 
            "p4": null, 
            "e2": 2019.0
        }, 
        {
            "fp": [
                18, 
                4, 
                3, 
                4, 
                1, 
                0, 
                0, 
                0
            ], 
            "injections": [
                {
                    "day": 58, 
                    "dose": 8
                }, 
                {
                    "day": 59, 
                    "dose": 8
                }
            ], 
            "day": 58, 
            "p4": null, 
            "e2": 6102.0
        }, 
        {
            "fp": [
                18, 
                2, 
                4, 
                2, 
                3, 
                3, 
                0, 
                0
            ], 
            "injections": [
                {
                    "day": 60, 
                    "dose": 0
                }
            ], 
            "day": 60, 
            "p4": null, 
            "e2": 11994.0
        }
    ]
}