{
    "record": "619_1", 
    "data": {
        "amh": 37.78, 
        "age": 23, 
        "afc": 21
    }, 
    "treatment": {
        "protocol": "Anta", 
        "params": {
            "dayStartPrep": 2, 
            "durationPrep": 23
        }
    }, 
    "visits": [
        {
            "fp": null, 
            "injections": [
                {
                    "day": 27, 
                    "dose": 4
                }, 
                {
                    "day": 28, 
                    "dose": 4
                }, 
                {
                    "day": 29, 
                    "dose": 4
                }, 
                {
                    "day": 30, 
                    "dose": 4
                }, 
                {
                    "day": 31, 
                    "dose": 4
                }
            ], 
            "day": 26, 
            "p4": 1.3, 
            "e2": 145.0
        }, 
        {
            "fp": [
                35, 
                0, 
                1, 
                0, 
                0, 
                0, 
                0, 
                0
            ], 
            "injections": [
                {
                    "day": 32, 
                    "dose": 6
                }, 
                {
                    "day": 33, 
                    "dose": 6
                }
            ], 
            "day": 32, 
            "p4": 1.8, 
            "e2": 576.0
        }, 
        {
            "fp": [
                7, 
                8, 
                0, 
                0, 
                0, 
                0, 
                0, 
                0
            ], 
            "injections": [
                {
                    "day": 34, 
                    "dose": 6
                }, 
                {
                    "day": 35, 
                    "dose": 6
                }, 
                {
                    "day": 36, 
                    "dose": 6
                }
            ], 
            "day": 34, 
            "p4": null, 
            "e2": 1633.0
        }, 
        {
            "fp": [
                5, 
                6, 
                5, 
                6, 
                4, 
                0, 
                0, 
                0
            ], 
            "injections": [
                {
                    "day": 37, 
                    "dose": 6
                }
            ], 
            "day": 37, 
            "p4": null, 
            "e2": 7360.0
        }, 
        {
            "fp": [
                7, 
                5, 
                7, 
                8, 
                9, 
                1, 
                0, 
                0
            ], 
            "injections": [
                {
                    "day": 38, 
                    "dose": 6
                }, 
                {
                    "day": 39, 
                    "dose": 0
                }
            ], 
            "day": 38, 
            "p4": null, 
            "e2": 10171.0
        }
    ]
}