{
    "record": "79_1", 
    "data": {
        "amh": 4.3, 
        "age": 36, 
        "afc": 9
    }, 
    "treatment": {
        "protocol": "Short", 
        "params": {
            "dayStartPrep": 2, 
            "durationPrep": 19
        }
    }, 
    "visits": [
        {
            "fp": null, 
            "injections": [
                {
                    "day": 23, 
                    "dose": 8
                }, 
                {
                    "day": 24, 
                    "dose": 8
                }
            ], 
            "day": 22, 
            "p4": 0.9, 
            "e2": 222.0
        }, 
        {
            "day": 25, 
            "e2": null, 
            "p4": null, 
            "fp": null, 
            "injections": [
                {
                    "day": 25, 
                    "dose": 8
                }, 
                {
                    "day": 26, 
                    "dose": 8
                }, 
                {
                    "day": 27, 
                    "dose": 8
                }
            ]
        }, 
        {
            "fp": null, 
            "injections": [
                {
                    "day": 28, 
                    "dose": 8
                }, 
                {
                    "day": 29, 
                    "dose": 8
                }
            ], 
            "day": 28, 
            "p4": 9.6, 
            "e2": 698.0
        }, 
        {
            "fp": [
                3, 
                0, 
                1, 
                0, 
                1, 
                0, 
                0, 
                0
            ], 
            "injections": [
                {
                    "day": 30, 
                    "dose": 8
                }
            ], 
            "day": 30, 
            "p4": 24.6, 
            "e2": 1187.0
        }
    ]
}