{
    "record": "824_3", 
    "data": {
        "amh": 13.0, 
        "age": 39, 
        "afc": 15
    }, 
    "treatment": {
        "protocol": "Long", 
        "params": {
            "dayStartPrep": 21, 
            "durationPrep": 18
        }
    }, 
    "visits": [
        {
            "fp": [
                8, 
                0, 
                0, 
                0, 
                0, 
                0, 
                0, 
                0
            ], 
            "injections": [
                {
                    "day": 39, 
                    "dose": 8
                }, 
                {
                    "day": 40, 
                    "dose": 8
                }, 
                {
                    "day": 41, 
                    "dose": 6
                }, 
                {
                    "day": 42, 
                    "dose": 6
                }, 
                {
                    "day": 43, 
                    "dose": 6
                }
            ], 
            "day": 38, 
            "p4": 0.7, 
            "e2": 51.0
        }, 
        {
            "fp": null, 
            "injections": [
                {
                    "day": 44, 
                    "dose": 6
                }, 
                {
                    "day": 45, 
                    "dose": 6
                }
            ], 
            "day": 44, 
            "p4": 1.2, 
            "e2": 1920.0
        }, 
        {
            "fp": [
                7, 
                4, 
                4, 
                3, 
                1, 
                0, 
                0, 
                0
            ], 
            "injections": [
                {
                    "day": 46, 
                    "dose": 6
                }, 
                {
                    "day": 47, 
                    "dose": 6
                }, 
                {
                    "day": 48, 
                    "dose": 0
                }
            ], 
            "day": 46, 
            "p4": null, 
            "e2": 3813.0
        }
    ]
}