{
    "record": "88_1", 
    "data": {
        "amh": 21.48, 
        "age": 33, 
        "afc": 26
    }, 
    "treatment": {
        "protocol": "Anta", 
        "params": {
            "dayStartPrep": 2, 
            "durationPrep": 24
        }
    }, 
    "visits": [
        {
            "fp": null, 
            "injections": [
                {
                    "day": 28, 
                    "dose": 4
                }, 
                {
                    "day": 29, 
                    "dose": 4
                }, 
                {
                    "day": 30, 
                    "dose": 4
                }, 
                {
                    "day": 31, 
                    "dose": 4
                }, 
                {
                    "day": 32, 
                    "dose": 4
                }
            ], 
            "day": 27, 
            "p4": 1.8, 
            "e2": 86.0
        }, 
        {
            "fp": null, 
            "injections": [
                {
                    "day": 33, 
                    "dose": 4
                }, 
                {
                    "day": 34, 
                    "dose": 4
                }
            ], 
            "day": 33, 
            "p4": 2.7, 
            "e2": 2338.0
        }, 
        {
            "fp": [
                19, 
                1, 
                6, 
                3, 
                1, 
                0, 
                0, 
                0
            ], 
            "injections": [
                {
                    "day": 35, 
                    "dose": 4
                }, 
                {
                    "day": 36, 
                    "dose": 4
                }
            ], 
            "day": 35, 
            "p4": 2.8, 
            "e2": 2613.0
        }
    ]
}