{
    "record": "97_1", 
    "data": {
        "amh": 13.33, 
        "age": 33, 
        "afc": 12
    }, 
    "treatment": {
        "protocol": "Long", 
        "params": {
            "dayStartPrep": 21, 
            "durationPrep": 27
        }
    }, 
    "visits": [
        {
            "fp": [
                8, 
                0, 
                0, 
                0, 
                0, 
                0, 
                0, 
                0
            ], 
            "injections": [
                {
                    "day": 48, 
                    "dose": 6
                }, 
                {
                    "day": 49, 
                    "dose": 6
                }, 
                {
                    "day": 50, 
                    "dose": 6
                }, 
                {
                    "day": 51, 
                    "dose": 6
                }, 
                {
                    "day": 52, 
                    "dose": 6
                }
            ], 
            "day": 47, 
            "p4": 0.6, 
            "e2": 100.0
        }, 
        {
            "fp": null, 
            "injections": [
                {
                    "day": 53, 
                    "dose": 4
                }, 
                {
                    "day": 54, 
                    "dose": 4
                }
            ], 
            "day": 53, 
            "p4": 1.7, 
            "e2": 3456.0
        }, 
        {
            "fp": [
                0, 
                4, 
                5, 
                2, 
                1, 
                3, 
                2, 
                0
            ], 
            "injections": [
                {
                    "day": 55, 
                    "dose": 4
                }
            ], 
            "day": 55, 
            "p4": 2.2, 
            "e2": 6645.0
        }
    ]
}